[{
  "_id": {
    "$oid": "6640686ecd1fb6de7b76be86"
  },
  "nombre": "Mauricio Pochettino",
  "edad": 49,
  "nacionalidad": "Argentino",
  "experiencia": "Ex jugador y entrenador con varios años de experiencia en ligas europeas."
},
{
  "_id": {
    "$oid": "664068a6cd1fb6de7b76be87"
  },
  "nombre": "Ole Gunnar Solskjær",
  "edad": 49,
  "nacionalidad": "Noruego",
  "experiencia": "Ex jugador del Manchester United y entrenador con experiencia en el fútbol inglés."
}]