[{
  "_id": {
    "$oid": "66406c63cd1fb6de7b76be9a"
  },
  "torneo": "Copa Mundial FIFA 2022",
  "equipo": "Paris Saint-Germain",
  "puntos": 6,
  "partidos_jugados": 2,
  "partidos_ganados": 2,
  "partidos_empatados": 0,
  "partidos_perdidos": 0,
  "goles_a_favor": 5,
  "goles_en_contra": 1,
  "diferencia_goles": 4
},
{
  "_id": {
    "$oid": "66406c63cd1fb6de7b76be9b"
  },
  "torneo": "Copa Mundial FIFA 2022",
  "equipo": "Manchester United",
  "puntos": 3,
  "partidos_jugados": 2,
  "partidos_ganados": 1,
  "partidos_empatados": 0,
  "partidos_perdidos": 1,
  "goles_a_favor": 3,
  "goles_en_contra": 4,
  "diferencia_goles": -1
}]