[{
  "_id": {
    "$oid": "664066a5cd1fb6de7b76be80"
  },
  "nombre": "Lionel Messi",
  "edad": 34,
  "posicion": "Delantero",
  "equipo_actual": "Paris Saint-Germain"
},
{
  "_id": {
    "$oid": "664067fccd1fb6de7b76be81"
  },
  "nombre": "Cristiano Ronaldo",
  "edad": 37,
  "posicion": "Delantero",
  "equipo_actual": "Manchester United"
},
{
  "_id": {
    "$oid": "6640683fcd1fb6de7b76be82"
  },
  "nombre": "Neymar Jr.",
  "edad": 30,
  "posicion": "Delantero",
  "equipo_actual": "Paris Saint-Germain"
}]